<?xml version="1.0" encoding="UTF-8" standalone="no"?>
<!-- Created with Inkscape (http://www.inkscape.org/) -->

<svg
   xmlns:dc="http://purl.org/dc/elements/1.1/"
   xmlns:cc="http://creativecommons.org/ns#"
   xmlns:rdf="http://www.w3.org/1999/02/22-rdf-syntax-ns#"
   xmlns:svg="http://www.w3.org/2000/svg"
   xmlns="http://www.w3.org/2000/svg"
   xmlns:sodipodi="http://sodipodi.sourceforge.net/DTD/sodipodi-0.dtd"
   xmlns:inkscape="http://www.inkscape.org/namespaces/inkscape"
   width="900"
   height="900"
   viewBox="0 0 238.12499 238.12501"
   version="1.1"
   id="svg8"
   inkscape:version="0.92.4 (5da689c313, 2019-01-14)"
   sodipodi:docname="gear.svg"
   inkscape:export-filename="/home/user/Desktop/gear4.png"
   inkscape:export-xdpi="96"
   inkscape:export-ydpi="96">
  <defs
     id="defs2" />
  <sodipodi:namedview
     id="base"
     pagecolor="#ffffff"
     bordercolor="#666666"
     borderopacity="1.0"
     inkscape:pageopacity="0.0"
     inkscape:pageshadow="2"
     inkscape:zoom="0.64896689"
     inkscape:cx="145.8324"
     inkscape:cy="438.44316"
     inkscape:document-units="mm"
     inkscape:current-layer="layer1"
     showgrid="false"
     units="px"
     inkscape:window-width="1920"
     inkscape:window-height="1018"
     inkscape:window-x="0"
     inkscape:window-y="0"
     inkscape:window-maximized="1" />
  <metadata
     id="metadata5">
    <rdf:RDF>
      <cc:Work
         rdf:about="">
        <dc:format>image/svg+xml</dc:format>
        <dc:type
           rdf:resource="http://purl.org/dc/dcmitype/StillImage" />
        <dc:title />
      </cc:Work>
    </rdf:RDF>
  </metadata>
  <g
     inkscape:label="Camada 1"
     inkscape:groupmode="layer"
     id="layer1"
     transform="translate(0,-58.874983)">
    <rect
       id="rect7"
       width="238.125"
       height="238.125"
       x="0"
       y="58.874989"
       style="fill:#484848;fill-opacity:1;stroke-width:1.14935017" />
    <g
       id="g4680"
       transform="matrix(0.72500435,0,0,0.72500435,-67.823788,39.690092)"
       style="fill:#ffffff;fill-opacity:1">
      <g
         transform="matrix(0.70529225,0,0,0.70529225,151.93931,84.851553)"
         id="g4525"
         style="fill:#ffffff;fill-opacity:1">
        <g
           style="fill:#ffffff;fill-opacity:1"
           id="g4523">
          <path
             style="fill:#ffffff;fill-opacity:1"
             inkscape:connector-curvature="0"
             d="m 150.057,105.1 c -24.789,0 -44.955,20.167 -44.955,44.955 0,24.788 20.166,44.955 44.955,44.955 24.789,0 44.955,-20.167 44.955,-44.955 0,-24.788 -20.167,-44.955 -44.955,-44.955 z m 0,73.26 c -15.607,0 -28.305,-12.697 -28.305,-28.305 0,-15.608 12.697,-28.305 28.305,-28.305 15.608,0 28.305,12.697 28.305,28.305 0,15.608 -12.699,28.305 -28.305,28.305 z"
             id="path4517" />
          <path
             style="fill:#ffffff;fill-opacity:1"
             inkscape:connector-curvature="0"
             d="m 297.365,183.342 -25.458,-22.983 v -20.608 l 25.457,-22.981 c 2.614,-2.361 3.461,-6.112 2.112,-9.366 L 285.871,74.558 c -1.348,-3.253 -4.588,-5.305 -8.115,-5.128 l -34.252,1.749 -14.571,-14.571 1.749,-34.251 c 0.18,-3.518 -1.874,-6.769 -5.128,-8.116 L 192.707,0.635 c -3.253,-1.35 -7.005,-0.501 -9.365,2.111 L 160.358,28.204 H 139.752 L 116.77,2.746 c -2.361,-2.613 -6.112,-3.458 -9.365,-2.111 L 74.559,14.24 c -3.255,1.348 -5.308,4.599 -5.128,8.116 l 1.75,34.251 -14.572,14.571 -34.252,-1.749 c -3.506,-0.188 -6.768,1.874 -8.115,5.128 L 0.635,107.403 c -1.348,3.255 -0.502,7.005 2.112,9.366 l 25.457,22.981 v 20.608 L 2.749,183.341 c -2.614,2.361 -3.461,6.112 -2.112,9.366 l 13.605,32.846 c 1.348,3.255 4.603,5.321 8.115,5.128 l 34.252,-1.749 14.572,14.571 -1.75,34.251 c -0.18,3.518 1.874,6.769 5.128,8.116 l 32.846,13.606 c 3.255,1.352 7.005,0.502 9.365,-2.111 l 22.984,-25.458 h 20.606 l 22.984,25.458 c 1.613,1.785 3.873,2.746 6.182,2.746 1.071,0 2.152,-0.208 3.183,-0.634 l 32.846,-13.606 c 3.255,-1.348 5.308,-4.599 5.128,-8.116 l -1.749,-34.251 14.571,-14.571 34.252,1.749 c 3.506,0.178 6.768,-1.874 8.115,-5.128 l 13.605,-32.846 c 1.348,-3.255 0.502,-7.005 -2.112,-9.366 z m -24.628,30.412 -32.079,-1.639 c -2.351,-0.127 -4.646,0.764 -6.311,2.428 l -19.804,19.804 c -1.666,1.666 -2.547,3.958 -2.428,6.311 l 1.638,32.079 -21.99,9.109 -21.525,-23.843 c -1.578,-1.747 -3.824,-2.746 -6.179,-2.746 h -28.006 c -2.355,0 -4.601,0.998 -6.179,2.746 l -21.525,23.843 -21.99,-9.109 1.639,-32.079 c 0.12,-2.353 -0.763,-4.646 -2.429,-6.311 L 65.766,214.543 c -1.665,-1.665 -3.955,-2.55 -6.311,-2.428 l -32.079,1.639 -9.109,-21.99 23.842,-21.525 c 1.748,-1.58 2.746,-3.824 2.746,-6.179 v -28.008 c 0,-2.355 -0.998,-4.601 -2.746,-6.179 l -23.842,-21.525 9.109,-21.99 32.079,1.639 c 2.354,0.124 4.646,-0.763 6.311,-2.428 L 85.569,65.766 c 1.666,-1.666 2.549,-3.958 2.429,-6.313 l -1.639,-32.079 21.99,-9.109 21.525,23.842 c 1.578,1.747 3.824,2.746 6.179,2.746 h 28.006 c 2.355,0 4.601,-0.998 6.179,-2.746 l 21.525,-23.842 21.99,9.109 -1.638,32.079 c -0.12,2.353 0.761,4.645 2.428,6.313 l 19.804,19.803 c 1.666,1.665 3.959,2.564 6.311,2.428 l 32.079,-1.639 9.109,21.99 -23.843,21.525 c -1.748,1.58 -2.746,3.824 -2.746,6.179 v 28.008 c 0,2.355 0.998,4.601 2.746,6.179 l 23.843,21.525 z"
             id="path4519" />
          <path
             style="fill:#ffffff;fill-opacity:1"
             inkscape:connector-curvature="0"
             d="m 150.057,71.357 c -43.394,0 -78.698,35.305 -78.698,78.698 0,43.394 35.304,78.698 78.698,78.698 43.394,0 78.698,-35.305 78.698,-78.698 -0.001,-43.394 -35.305,-78.698 -78.698,-78.698 z m 0,140.746 c -34.214,0 -62.048,-27.834 -62.048,-62.048 0,-34.214 27.834,-62.048 62.048,-62.048 34.214,0 62.048,27.834 62.048,62.048 0,34.214 -27.836,62.048 -62.048,62.048 z"
             id="path4521" />
        </g>
      </g>
      <circle
         r="83.873123"
         cy="190.68492"
         cx="257.77264"
         id="path4555"
         style="fill:#ffffff;fill-opacity:1;stroke:none;stroke-width:0.253757;stroke-opacity:1" />
      <rect
         y="252.34119"
         x="275.60086"
         height="33.02364"
         width="29.135286"
         id="rect4559"
         style="fill:#ffffff;fill-opacity:1;stroke:none;stroke-width:0.28783649;stroke-opacity:1" />
      <rect
         transform="rotate(30)"
         y="-68.381882"
         x="293.30203"
         height="26.025593"
         width="28.356243"
         id="rect4559-3"
         style="fill:#ffffff;fill-opacity:1;stroke:none;stroke-width:0.25208578;stroke-opacity:1" />
      <rect
         y="135.05354"
         x="323.68079"
         height="36.285236"
         width="27.09679"
         id="rect4559-6"
         style="fill:#ffffff;fill-opacity:1;stroke:none;stroke-width:0.29096958;stroke-opacity:1" />
      <rect
         transform="matrix(0.89408901,0.44788932,-0.31293499,0.94977455,0,0)"
         y="34.145065"
         x="379.42572"
         height="29.912628"
         width="28.077875"
         id="rect4559-7"
         style="fill:#ffffff;fill-opacity:1;stroke:none;stroke-width:0.2689262;stroke-opacity:1" />
      <rect
         y="94.577293"
         x="211.5016"
         height="24.869656"
         width="27.09679"
         id="rect4559-5"
         style="fill:#ffffff;fill-opacity:1;stroke:none;stroke-width:0.2408893;stroke-opacity:1" />
      <rect
         y="137.98637"
         x="164.82288"
         height="36.692936"
         width="27.09679"
         id="rect4559-35"
         style="fill:#ffffff;fill-opacity:1;stroke:none;stroke-width:0.29259968;stroke-opacity:1" />
      <rect
         y="207.50998"
         x="162.9854"
         height="30.169746"
         width="27.09679"
         id="rect4559-62"
         style="fill:#ffffff;fill-opacity:1;stroke:none;stroke-width:0.26531905;stroke-opacity:1" />
      <rect
         y="258.26855"
         x="210.6862"
         height="30.169746"
         width="28.727587"
         id="rect4559-62-9"
         style="fill:#ffffff;fill-opacity:1;stroke:none;stroke-width:0.27318642;stroke-opacity:1" />
    </g>
    <circle
       style="opacity:0.98999999;fill:#484848;fill-opacity:1;stroke:none;stroke-width:0.29639694;stroke-opacity:1"
       id="path4712"
       cx="119.0625"
       cy="177.93748"
       r="38.364582" />
  </g>
</svg>
